SimplifyStats Vignette
…
Perform pair-wise hypothesis testing

Similarly, the function pairwise_stats can be used to perform pairwise statistical tests for multiple variables based on unique combinations of the grouping variables.

# Generate descriptive statistics.
pairwise_stats(
  df, 
  group_cols = c("Species","Condition"), 
  var_cols = c("Sepal.Length", "Sepal.Width"),
  t.test
)
#> # A tibble: 30 x 15
#>    Variable A.Species A.Condition B.Species B.Condition estimate estimate1
#>    <chr>    <fct>     <chr>       <fct>     <chr>          <dbl>     <dbl>
#>  1 Sepal.L~ setosa    untreated   setosa    treated       0.0328      5.02
#>  2 Sepal.L~ setosa    untreated   versicol~ untreated    -0.971       5.02
#>  3 Sepal.L~ setosa    untreated   versicol~ treated      -0.859       5.02
#>  4 Sepal.L~ setosa    untreated   virginica untreated    -1.48        5.02
#>  5 Sepal.L~ setosa    untreated   virginica treated      -1.65        5.02
#>  6 Sepal.L~ setosa    treated     versicol~ untreated    -1.00        4.99
#>  7 Sepal.L~ setosa    treated     versicol~ treated      -0.892       4.99
#>  8 Sepal.L~ setosa    treated     virginica untreated    -1.52        4.99
#>  9 Sepal.L~ setosa    treated     virginica treated      -1.68        4.99
#> 10 Sepal.L~ versicol~ untreated   versicol~ treated       0.112       5.99
#> # ... with 20 more rows, and 8 more variables: estimate2 <dbl>,
#> #   statistic <dbl>, p.value <dbl>, parameter <dbl>, conf.low <dbl>,
#> #   conf.high <dbl>, method <chr>, alternative <chr>
